{
    "swagger": "2.0",
    "info": {
        "description": "Api server for sender application",
        "title": "Sender service Api",
        "contact": {},
        "version": "1.0"
    },
    "host": "localhost:8083/sender",
    "basePath": "/",
    "paths": {
        "/send": {
            "post": {
                "description": "mail template receiver",
                "consumes": [
                    "application/json"
                ],
                "produces": [
                    "application/json"
                ],
                "tags": [
                    "mail"
                ],
                "summary": "Get mail",
                "operationId": "get-template",
                "parameters": [
                    {
                        "description": "Mail",
                        "name": "mail",
                        "in": "body",
                        "required": true,
                        "schema": {
                            "$ref": "#/definitions/models.FormedMail"
                        }
                    }
                ],
                "responses": {}
            }
        }
    },
    "definitions": {
        "models.FormedMail": {
            "type": "object",
            "properties": {
                "mail_id": {
                    "type": "string"
                },
                "receivers_id": {
                    "description": "receivers from owner",
                    "type": "array",
                    "items": {
                        "type": "string"
                    }
                },
                "text": {
                    "type": "string"
                },
                "user_id": {
                    "description": "the owner",
                    "type": "string"
                }
            }
        }
    }
}